<?xml version="1.0" encoding="UTF-8"?>
<svg width="142px" height="121px" viewBox="0 0 142 121" version="1.1" xmlns="http://www.w3.org/2000/svg" xmlns:xlink="http://www.w3.org/1999/xlink">
    <!-- Generator: Sketch 61.1 (89650) - https://sketch.com -->
    <title>Ouvert@1x</title>
    <desc>Created with Sketch.</desc>
    <defs>
        <circle id="path-1" cx="26" cy="26" r="26"></circle>
        <rect id="path-3" x="9.57280993" y="13.1769479" width="57" height="50.4995157"></rect>
    </defs>
    <g id="Page-1" stroke="none" stroke-width="1" fill="none" fill-rule="evenodd">
        <g id="Ouvert" transform="translate(-1.000000, 0.000000)">
            <path d="M58.9,11.4 L58.8,11.3 C56.7,8.1 53.2,8.3 49.8,8.2 C45.6,8 41.4,7.5 37.4,6.1 C30.9,3.7 24.4,0.3 17.2,1.1 C11.8,1.8 8.6,5.5 8.7,11 C8.7,11.3 8.7,11.5 8.7,11.8 C8.7,12.1 6.1,13.8 5.8,14.1 C4.5,15.3 3.4,16.6 2.6,18.2 C-1.2,25.3 2.3,33.8 6.2,40 C6.4,40.3 8.5,43.3 8.4,43.4 C9.9,41.9 10.7,41.5 12.9,37.7 C12.1,37.1 11.5,36.3 11.2,35.4 C10.8,34.5 10.7,33.5 10.7,32.6 C11,30.7 12,29.2 16.5,30.4 C17.3,29.5 18.2,27.1 18.9,25.1 C19.3,24.1 19.5,23 19.5,21.9 C23.5,24 27.8,25.6 32.2,26.6 C41.5,28.8 56.5,30.2 59.6,18.1 C59.9,17 60,15.9 59.9,14.8 C59.8,13.5 59.4,12.4 58.9,11.4 Z" id="Path" fill="#FFFFFF" fill-rule="nonzero"></path>
            <path d="M38.1,64.3 L38.1,73.6 L28.4,81.9 L17.9,73.6 L17.9,58.9 C14.3,56.3 11.5,52.7 9.9,48.6 C8.9,46.1 8.3,43.4 8.3,40.6" id="Path" stroke="#FFFFFF" stroke-width="2" stroke-linecap="round" stroke-linejoin="round"></path>
            <polyline id="Path" stroke="#FFFFFF" stroke-width="2" stroke-linecap="round" stroke-linejoin="round" points="38.1 73.7 43.4 90.6 28.3 82 13 90.6 17.8 73.7"></polyline>
            <path d="M38.1,71.2 C43.7,74 59.8,81.3 66.6,84.6 C69.2,88.3 86,109 94,119.1" id="Path" stroke="#FFFFFF" stroke-width="2" stroke-linecap="round" stroke-linejoin="round"></path>
            <path d="M48.9,24.3 C51.4,33.6 52.2,44.3 48.6,53.4 C47,57.4 44.3,61.2 40.5,63.3 C36.2,65.7 30.7,65.1 26.2,63.5" id="Path" stroke="#FFFFFF" stroke-width="2" stroke-linecap="round" stroke-linejoin="round"></path>
            <path d="M37.9,64.4 C35.8,64.9 33.7,65 31.6,64.8 C29.7,64.6 27.8,64.1 26,63.3 C27.1,65.7 28.8,67.7 30.9,69.1 C33,70.6 35.5,71.4 38.1,71.6 L37.9,64.4 Z" id="Path" stroke="#FFFFFF" stroke-width="2" fill="#FFFFFF" fill-rule="nonzero" stroke-linecap="round" stroke-linejoin="round"></path>
            <g id="Group" transform="translate(90.000000, 1.000000)">
                <mask id="mask-2" fill="white">
                    <use xlink:href="#path-1"></use>
                </mask>
                <use id="Oval" stroke="#FFFFFF" stroke-width="1.99998082" fill="#FFFFFF" fill-rule="nonzero" xlink:href="#path-1"></use>
                <g id="Path" mask="url(#mask-2)">
                    <g transform="translate(6.816952, 6.757842)">
                        <mask id="mask-4" fill="white">
                            <use xlink:href="#path-3"></use>
                        </mask>
                        <use id="Mask" stroke="none" fill="#10151B" fill-rule="nonzero" transform="translate(38.072810, 38.426706) rotate(-45.000000) translate(-38.072810, -38.426706) " xlink:href="#path-3"></use>
                        <line x1="33.1830479" y1="20.1421579" x2="19.1830479" y2="20.1421579" id="Path" stroke="#FFFFFF" stroke-width="2" fill="none" stroke-linecap="round" stroke-linejoin="round" mask="url(#mask-4)"></line>
                    </g>
                </g>
                <line x1="26.4" y1="8.6" x2="26.4" y2="26.9" id="Path" stroke="#10151B" stroke-width="2" stroke-linecap="round" stroke-linejoin="round" mask="url(#mask-2)"></line>
            </g>
        </g>
    </g>
</svg>