<?xml version="1.0" encoding="utf-8"?>
<!-- Generator: Adobe Illustrator 24.0.1, SVG Export Plug-In . SVG Version: 6.00 Build 0)  -->
<svg version="1.1" id="Layer_1" xmlns="http://www.w3.org/2000/svg" xmlns:xlink="http://www.w3.org/1999/xlink" x="0px" y="0px"
	 viewBox="0 0 205.5 132" style="enable-background:new 0 0 205.5 132;" xml:space="preserve">
<style type="text/css">
	.st0{fill:none;stroke:#FFFFFF;stroke-width:2.91;stroke-linecap:round;stroke-linejoin:round;}
	.st1{fill:#FFFFFF;}
	.st2{fill:none;stroke:#FFFFFF;stroke-width:2.05;stroke-linecap:round;stroke-linejoin:round;}
	.st3{fill:#FFFFFF;stroke:#FFFFFF;stroke-width:2.05;stroke-linecap:round;stroke-linejoin:round;}
	.st4{fill:none;stroke:#FFFFFF;stroke-width:2.25;stroke-linecap:round;stroke-linejoin:round;}
	.st5{fill:#FFFFFF;stroke:#FFFFFF;stroke-width:2.25;stroke-linecap:round;stroke-linejoin:round;}
	.st6{fill:#FFFFFF;stroke:#FFFFFF;stroke-width:2.44;}
</style>
<title>Meeting</title>
<path class="st0" d="M111.6,52.6h9c11.6,0,21,9.4,21,21v21h-30c-11.6,0-21-9.4-21-21l0,0C90.6,62,100,52.6,111.6,52.6z"/>
<path class="st0" d="M107.9,67.8h16.3"/>
<path class="st0" d="M107.9,77.9h16.3"/>
<path class="st1" d="M47.2,1.5c4.1-1.3,8.5-1.8,12.8-1.3c5,0.5,8.6,2.4,13.4,4.1c4.1,1.4,9.9,1.3,13.6,3.9c2.9,2,4.7,5.4,4.8,8.9
	c0.1,3.3-1.5,7.1-4.3,8.7c-6.2,3.6-13.5-2.4-16.5-7.6c-5.2,3.4-8.1,8.6-7.1,14.8c0.5,2.9,1.5,5.8,1.6,8.8c0.1,5.3-2.4,10.3-6.8,13.3
	c-1.3,0.7-2.5,1.6-3.5,2.6c-1.5,1.8-1.7,4.2-2,6.5c-0.4,4.5-1.9,8.8-4.3,12.6c-2.5,3.7-7.2,5.3-9.4,9.2c-2,3.6-1.1,8-2,11.9
	c-0.9,4.3-2.4,8.5-4.6,12.3c-2.6,4.5-6.6,8-11.5,9.9c-5.6,2-11.9,0.8-16.2-3.3c-2.2-2.1-3.9-4.7-4.7-7.7c-0.8-3.8-0.4-7.7,1.1-11.2
	C5.2,88.1,18.2,80.7,23,71.5c5.7-11,3.5-23.7,3.5-35.6c0-8,2.1-15.8,6.1-22.7C35.9,7.7,41.1,3.5,47.2,1.5z"/>
<path class="st2" d="M84.5,26.1c0.7,5.6,0.8,11.2,0.3,16.8c-0.6,5.5-1.6,8.4-3.8,10.6c-2.5,2.3-5.7,3.6-9,3.7
	c-4.1,0.1-8.1-1.3-11.3-3.9"/>
<path class="st2" d="M70.8,57.2c-0.4,2.3-0.8,4.7-1.2,7.3c-0.9,7.1-1,14.4-0.3,21.5c4.3,4.7,8.8,10,13.3,15.7
	c6.4,8.2,19.2,21.8,23.8,29.3"/>
<path class="st2" d="M164.4,86c-4.4,4.7-8.8,10-13.3,15.7c-6.4,8.2-19.2,21.8-23.8,29.3"/>
<path class="st2" d="M69,85.9c-5-0.5-7.7-1-11.1-2.7c-3.2-1.5-6.3-3.5-9-5.8"/>
<path class="st3" d="M70.8,57.2c-2.1,0-4.2-0.5-6.1-1.4c-2-1.2-3.9-2.6-5.6-4.1c0.2,3,1.3,5.8,3.1,8.1c1.9,2.3,4.4,4,7.3,4.8
	c0.5-3,0.2-1.4,0.5-3.2S70.4,59.3,70.8,57.2z"/>
<path class="st4" d="M164.8,74.4v10.5l11,9.3l11.7-9.3V68.3c4-2.9,7.2-6.9,9-11.5c1.1-2.9,1.8-5.9,1.8-9"/>
<path class="st4" d="M164.8,84.9l-6,19l17-9.7l17.2,9.7l-5.4-19"/>
<path class="st4" d="M152.7,29.3c-2.8,10.4-3.7,22.5,0.3,32.8c1.7,4.7,4.9,8.6,9.2,11.2c4.8,2.7,11,2,16.1,0.2"/>
<path class="st5" d="M165.1,74.5c2.3,0.5,4.8,0.7,7.1,0.4c2.2-0.2,4.3-0.8,6.3-1.7c-2.5,5.4-7.7,9-13.7,9.4L165.1,74.5z"/>
<path class="st6" d="M143.7,12.7c0,0-6.2,8.4,2.4,16s31.2,0.5,35,0l5.8-1.5c0,0-0.4,5.5,2.1,8.8c0,0,4.6-2.4,6.5,1.7
	s-1.5,10.1-1.5,10.1s2.5,3.2,4,3.9c0,0,11.5-18.6,3.1-29.6S180.9,11.6,172.3,12S161.6,8.6,154,7.8C149.6,7.3,145.5,10.4,143.7,12.7z
	"/>
</svg>
