<?xml version="1.0" encoding="iso-8859-1"?>
<!-- Generator: Adobe Illustrator 22.1.0, SVG Export Plug-In . SVG Version: 6.00 Build 0)  -->
<svg xmlns="http://www.w3.org/2000/svg" xmlns:xlink="http://www.w3.org/1999/xlink" version="1.1" id="Layer_1_1_" x="0px" y="0px" viewBox="0 0 64 64" style="enable-background:new 0 0 64 64;" xml:space="preserve" width="35" height="35">
<g>
	<g>
		<path style="fill:#969FAA;" d="M30,6v4H2V6c0-2.21,1.79-4,4-4h20C28.21,2,30,3.79,30,6z"/>
		<path style="fill:#969FAA;" d="M30,44v4c0,2.21-1.79,4-4,4H6c-2.21,0-4-1.79-4-4v-4h24h1H30z"/>
		<path style="fill:#69D6F4;" d="M30,10v6h-4v-2H6v26h17.84h0.01c1.04,2.62,2.15,4,2.15,4H2V10H30z"/>
		<path style="fill:#E6E9ED;" d="M26,14v2c0,0-4,5-4,14c0,4.27,0.9,7.64,1.84,10H6V14H26z"/>
		<path style="fill:#838F9B;" d="M52.91,58.74L54,62H30l1.09-3.26C31.63,57.1,33.16,56,34.88,56H39h6h4.12    C50.84,56,52.37,57.1,52.91,58.74z"/>
		<rect x="39" y="48" style="fill:#AAB2BD;" width="6" height="8"/>
		<path style="fill:#838F9B;" d="M47,44v2c0,1.1-0.9,2-2,2h-6c-1.1,0-2-0.9-2-2v-2H47z"/>
		<path style="fill:#969FAA;" d="M22,30c0-9,4-14,4-14h4h28c0,0,4,5,4,14s-4,14-4,14H47H37h-7h-3h-1c0,0-1.11-1.38-2.15-4h-0.01    C22.9,37.64,22,34.27,22,30z"/>
		<path style="fill:#69D6F4;" d="M42,20c5.52,0,10,4.48,10,10s-4.48,10-10,10s-10-4.48-10-10S36.48,20,42,20z"/>
		<circle style="fill:#3BAFDA;" cx="42" cy="30" r="6"/>
		<circle style="fill:#69D6F4;" cx="42" cy="30" r="2"/>
	</g>
	<g>
		<path d="M42,41c6.065,0,11-4.935,11-11s-4.935-11-11-11s-11,4.935-11,11S35.935,41,42,41z M42,21c4.962,0,9,4.038,9,9    s-4.038,9-9,9s-9-4.038-9-9S37.038,21,42,21z"/>
		<path d="M42,37v-2c-2.757,0-5-2.243-5-5s2.243-5,5-5s5,2.243,5,5h2c0-3.86-3.14-7-7-7s-7,3.14-7,7S38.14,37,42,37z"/>
		<path d="M42,27c-1.654,0-3,1.346-3,3s1.346,3,3,3s3-1.346,3-3S43.654,27,42,27z M42,31c-0.551,0-1-0.449-1-1s0.449-1,1-1    s1,0.449,1,1S42.551,31,42,31z"/>
		<rect x="27" y="19" width="2" height="2"/>
		<rect x="27" y="39" width="2" height="2"/>
		<rect x="55" y="39" width="2" height="2"/>
		<rect x="55" y="19" width="2" height="2"/>
		<rect x="12" y="5" width="8" height="2"/>
		<rect x="13" y="47" width="6" height="2"/>
		<rect x="22" y="5" width="2" height="2"/>
		<rect x="8" y="5" width="2" height="2"/>
		<path d="M58.781,15.375L58.48,15H31V6c0-2.757-2.243-5-5-5H6C3.243,1,1,3.243,1,6v42c0,2.757,2.243,5,5,5h20c2.757,0,5-2.243,5-5    v-5h-4.484C25.653,41.71,23,37.156,23,30c0-7.158,2.655-11.712,3.516-13h30.969C58.347,18.29,61,22.844,61,30    c0,7.158-2.655,11.712-3.516,13H33.056v2H36v1c0,1.302,0.839,2.402,2,2.816V55h-3.117c-2.155,0-4.062,1.374-4.743,3.418L28.613,63    h26.774l-1.527-4.582C53.179,56.374,51.272,55,49.117,55H46v-6.184c1.161-0.414,2-1.514,2-2.816v-1h10.48l0.3-0.375    C58.953,44.409,63,39.245,63,30S58.953,15.591,58.781,15.375z M6,3h20c1.654,0,3,1.346,3,3v3H3V6C3,4.346,4.346,3,6,3z M22.415,39    H7V15h18v0.671c-0.871,1.226-4,6.197-4,14.329C21,33.662,21.637,36.672,22.415,39z M27,15v-2H5v28h18.178    c0.989,2.274,1.958,3.521,2.041,3.625L25.52,45H29v3c0,1.654-1.346,3-3,3H6c-1.654,0-3-1.346-3-3v-3h19v-2H3V11h26v4H27z     M51.963,59.051L52.613,61H31.387l0.65-1.949C32.446,57.824,33.59,57,34.883,57h14.234C50.41,57,51.554,57.824,51.963,59.051z     M40,55v-6h4v6H40z M46,46c0,0.551-0.449,1-1,1h-6c-0.551,0-1-0.449-1-1v-1h8V46z"/>
	</g>
</g>
</svg>
