
<svg version="1.1" id="Layer_1" xmlns="http://www.w3.org/2000/svg" xmlns:xlink="http://www.w3.org/1999/xlink" x="0px" y="0px"
	 width="292px" height="323px" viewBox="0 0 292 323" enable-background="new 0 0 292 323" xml:space="preserve">
<path fill="#FFFFFF" d="M206.062,36.095c27.006,0,54.012,0,81.018,0c0,85.686,0,171.372,0,257.058c-85.686,0-171.372,0-257.058,0
	c0-85.686,0-171.372,0-257.058c36.675,0,73.35,0,110.025,0c-7.056,3.027-9.371,8.418-9.123,15.953
	c0.427,12.96,0.079,25.945,0.151,38.919c0.046,8.389,4.572,12.948,13.007,12.981c19.128,0.075,38.257,0.071,57.385,0.005
	c8.843-0.031,13.241-4.452,13.276-13.194c0.051-12.808-0.244-25.624,0.124-38.421C215.08,44.942,212.88,39.41,206.062,36.095z
	 M206.156,263.711c-1.541,4.631-1.395,9.15,2.246,12.914c3.824,3.953,7.642,7.926,11.686,11.647
	c5.289,4.866,11.464,4.859,16.513-0.122c12.341-12.174,24.674-24.364,36.671-36.873c2.059-2.147,3.38-5.892,3.407-8.913
	c0.06-6.627-15.635-22.049-22.286-22.04c-3.541,0.005-4.845-1.302-5.994-4.319c-3.972-10.437-7.944-20.967-15.976-29.144
	c-12.264-12.486-24.627-24.877-37.092-37.163c-4.178-4.118-9.356-5.842-15.141-3.741c-5.474,1.988-7.157,6.542-7.362,11.914
	c-0.01,0.272-0.336,0.532-0.645,0.99c-9.393-0.419-12.895,5.741-13.969,14.18c-0.828-0.527-1.061-0.605-1.062-0.686
	c-0.046-3.136,0.065-6.281-0.121-9.409c-1.268-21.307-11.606-36.531-31.212-44.932c-18.465-7.912-39.824-3.537-53.888,11.153
	c-14.598,15.246-18.55,33.292-10.963,53.071c10.579,27.581,42.087,39.433,68.755,26.432c1.497-0.73,4.032-1.722,4.837-1.065
	c3.614,2.951,6.776,6.455,11.014,10.667c-3.756,0-5.913,0-8.07,0c-2.167,0-4.335-0.045-6.501,0.007
	c-7.182,0.174-12.14,4.391-12.758,10.808c-0.605,6.279,3.198,11.061,10.218,12.632c6.825,1.528,13.679,2.928,20.523,4.372
	C168.371,250.18,187.957,253.591,206.156,263.711z M43.167,244.023c2.16,0,3.97,0,5.78,0c20.666-0.005,41.332-0.008,61.999-0.022
	c1.33-0.001,2.7,0.093,3.972-0.201c0.595-0.138,1.392-1.102,1.382-1.68c-0.009-0.583-0.822-1.51-1.429-1.651
	c-1.273-0.294-2.643-0.212-3.973-0.212c-20.833,0-41.666,0.011-62.499,0.019c-1.765,0.001-3.53,0-5.303,0
	c0-51.118,0-101.512,0-152.303c1.845,0,3.319,0,4.794,0c23.999,0.006,47.999,0.014,71.998,0.015c1.666,0,3.365,0.134,4.982-0.162
	c0.731-0.133,1.297-1.168,1.937-1.793c-0.682-0.583-1.288-1.498-2.064-1.675c-1.27-0.291-2.649-0.114-3.982-0.114
	C96.596,84.24,72.43,84.24,48.263,84.239c-1.75,0-3.5,0-5.194,0c-0.733-11.983,6.579-20.12,17.806-20.199
	c20.499-0.145,41-0.028,61.499-0.151c1.348-0.008,2.689-1.133,4.033-1.739c-1.31-0.647-2.618-1.852-3.932-1.858
	c-20.666-0.104-41.334-0.205-61.998,0.017c-12.299,0.132-21.387,9.447-21.404,21.775c-0.077,54.667-0.076,109.334-0.002,164
	c0.017,12.358,9.047,21.763,21.33,21.845c30.831,0.207,61.665,0.126,92.497,0.059c6.081-0.013,11.432-2.282,15.595-6.781
	c0.923-0.997,1.059-2.724,1.557-4.114c-1.318,0.475-2.673,0.868-3.946,1.442c-4.146,1.87-8.239,5.403-12.393,5.463
	c-31.326,0.454-62.663,0.367-93.994,0.14C49.309,264.062,42.114,255.178,43.167,244.023z M153.549,284.016
	c10.633,0,21.267,0.079,31.898-0.094c1.425-0.023,2.83-1.314,4.244-2.017c-1.411-0.543-2.82-1.552-4.233-1.559
	c-20.933-0.098-41.867-0.104-62.8,0.031c-1.419,0.009-2.829,1.316-4.243,2.019c1.411,0.539,2.816,1.525,4.234,1.544
	C132.947,284.073,143.248,284.012,153.549,284.016z M140.985,292.031c9.467,0,18.936,0.086,28.401-0.092
	c1.44-0.027,2.857-1.277,4.284-1.961c-1.391-0.562-2.78-1.605-4.175-1.613c-18.934-0.108-37.87-0.118-56.803,0.016
	c-1.432,0.01-2.854,1.291-4.281,1.981c1.391,0.556,2.774,1.573,4.173,1.594C122.049,292.098,131.517,292.03,140.985,292.031z
	 M107.097,259.969c2.828,0,6.017,0.814,8.38-0.233c2.278-1.009,4.715-3.713,5.251-6.086c0.703-3.108-2.022-5.171-5.25-5.278
	c-5.484-0.181-10.983-0.191-16.466,0c-3.521,0.123-5.543,2.357-5.537,5.829c0.006,3.517,2.153,5.513,5.638,5.742
	C101.764,260.117,104.435,259.977,107.097,259.969z M173.992,108.403c-0.46-0.061-0.92-0.122-1.38-0.184
	c-0.413,1.103-1.173,2.203-1.185,3.311c-0.095,9.459-0.11,18.92,0.029,28.377c0.015,1.001,1.179,1.985,1.81,2.976
	c0.59-1.008,1.678-2.01,1.691-3.026c0.125-9.624,0.092-19.25,0.016-28.875C174.967,110.12,174.334,109.263,173.992,108.403z
	 M244.08,113.224c0.025,0.495-0.109,1.533,0.169,2.446c0.427,1.407,1.136,2.729,1.726,4.086c0.655-1.293,1.466-2.535,1.913-3.897
	c0.339-1.034,0.215-2.22,0.316-3.598c1.859-0.114,3.524-0.013,5.075-0.387c0.906-0.219,1.628-1.195,2.433-1.831
	c-0.851-0.592-1.632-1.494-2.569-1.705c-1.546-0.349-3.193-0.253-5.193-0.366c0-1.763,0.255-3.284-0.083-4.659
	c-0.256-1.043-1.268-1.901-1.943-2.841c-0.567,0.878-1.421,1.691-1.637,2.648c-0.347,1.54-0.272,3.175-0.33,4.069
	c-2.93,1.07-5.228,1.91-7.526,2.75C238.744,110.932,241.057,111.925,244.08,113.224z M218.837,132.05
	c-1.144,0.075-2.17-0.035-3.076,0.243c-1.404,0.43-2.727,1.125-4.084,1.708c1.283,0.671,2.511,1.504,3.866,1.96
	c1.031,0.347,2.224,0.215,3.263,0.291c0.543,2.806,1.026,5.299,1.509,7.792c0.639-0.037,1.277-0.075,1.916-0.112
	c0.465-2.558,0.929-5.116,1.41-7.761c1.325-0.07,2.532,0.069,3.61-0.242c1.258-0.363,2.404-1.118,3.598-1.703
	c-1.122-0.656-2.175-1.544-3.386-1.906c-1.33-0.397-2.804-0.308-3.894-0.403c-0.503-2.949-0.905-5.31-1.308-7.671
	c-0.682,0.016-1.364,0.032-2.046,0.048C219.788,126.697,219.361,129.1,218.837,132.05z M106.422,75.954
	c3.823,0,7.651,0.108,11.465-0.082c0.867-0.043,1.682-1.124,2.52-1.727c-0.812-0.629-1.612-1.786-2.436-1.803
	c-7.31-0.152-14.627-0.176-21.936-0.02c-0.937,0.02-1.848,1.293-2.771,1.985c0.896,0.548,1.769,1.518,2.692,1.567
	C99.435,76.061,102.931,75.949,106.422,75.954z M99.796,292.835c1.673-1.054,2.785-1.755,3.898-2.456
	c-1.228-0.696-2.42-1.852-3.695-1.952c-1.157-0.09-2.403,0.971-3.61,1.524C97.445,290.846,98.502,291.74,99.796,292.835z"/>
<path stroke="#000000" stroke-width="4" d="M206.062,36.095c6.818,3.314,9.017,8.847,8.805,16.243
	c-0.367,12.798-0.072,25.613-0.124,38.421c-0.035,8.742-4.433,13.163-13.276,13.194c-19.128,0.066-38.257,0.07-57.385-0.005
	c-8.435-0.033-12.96-4.592-13.007-12.981c-0.072-12.974,0.277-25.959-0.151-38.919c-0.249-7.535,2.066-12.926,9.123-15.953
	C162.052,36.095,184.057,36.095,206.062,36.095z M172.547,100.241c9.659,0,19.318,0.048,28.977-0.017
	c6.63-0.045,9.514-2.883,9.535-9.362c0.045-13.655,0.049-27.311,0-40.967c-0.026-7.103-2.884-9.914-10.077-9.927
	c-18.819-0.036-37.638-0.038-56.456-0.001c-6.899,0.014-9.74,2.808-9.77,9.667c-0.059,13.656-0.058,27.312,0.004,40.968
	c0.031,6.822,2.888,9.59,9.81,9.627C153.895,100.279,163.222,100.242,172.547,100.241z"/>
<path stroke="#000000" stroke-width="5" d="M206.156,263.711c-18.199-10.12-37.785-13.531-57.167-17.62
	c-6.844-1.444-13.698-2.844-20.523-4.372c-7.02-1.571-10.823-6.353-10.218-12.632c0.618-6.417,5.576-10.634,12.758-10.808
	c2.166-0.052,4.334-0.008,6.501-0.007c2.157,0,4.313,0,8.07,0c-4.238-4.212-7.401-7.716-11.014-10.667
	c-0.805-0.657-3.34,0.336-4.837,1.065c-26.668,13.001-58.175,1.149-68.755-26.432c-7.587-19.78-3.634-37.825,10.963-53.071
	c14.064-14.689,35.423-19.064,53.888-11.153c19.607,8.401,29.944,23.625,31.212,44.932c0.186,3.127,0.075,6.272,0.121,9.409
	c0.001,0.082,0.235,0.16,1.062,0.686c1.074-8.439,4.577-14.599,13.969-14.18c0.309-0.458,0.635-0.718,0.645-0.99
	c0.205-5.373,1.888-9.926,7.362-11.914c5.785-2.101,10.963-0.377,15.141,3.741c12.465,12.286,24.828,24.677,37.092,37.163
	c8.032,8.177,12.004,18.708,15.976,29.144c1.148,3.017,2.453,4.323,5.994,4.319c6.65-0.009,22.345,15.412,22.286,22.04
	c-0.027,3.021-1.349,6.766-3.407,8.913c-11.997,12.509-24.33,24.699-36.671,36.873c-5.049,4.981-11.224,4.988-16.513,0.122
	c-4.044-3.721-7.862-7.695-11.686-11.647C204.761,272.861,204.615,268.342,206.156,263.711z M152.448,219.373
	c-0.223,0.627-0.446,1.254-0.67,1.881c-1.504,0.25-3.005,0.685-4.513,0.715c-4.996,0.097-9.996,0.036-14.994,0.057
	c-6.329,0.025-9.665,2.358-10.252,7.14c-0.595,4.847,2.104,7.732,8.318,9.177c25.718,5.979,52.19,9.2,76.38,20.849
	c1.027,0.494,3.272-0.123,4.176-1.01c11.415-11.202,22.716-22.521,33.942-33.912c0.864-0.877,1.655-2.785,1.288-3.769
	c-4.541-12.172-9.08-24.32-18.756-33.722c-11.23-10.912-22.13-22.163-33.301-33.138c-1.842-1.81-4.166-3.425-6.57-4.297
	c-3.5-1.27-7.043-0.704-9.331,2.697c-2.177,3.236-2.133,6.681,0.315,9.752c1.964,2.463,4.296,4.631,6.416,6.974
	c1.145,1.264,2.188,2.62,3.277,3.935c-0.297,0.439-0.594,0.878-0.891,1.317c-1.267-0.493-2.769-0.706-3.752-1.535
	c-2.157-1.819-4.066-3.936-6.051-5.956c-4.248-4.326-8.214-5.074-11.753-2.192c-3.932,3.202-4.178,7.975-0.368,12.766
	c1.853,2.33,4.18,4.277,6.221,6.464c0.932,0.998,1.694,2.155,2.533,3.24c-0.285,0.415-0.571,0.83-0.856,1.245
	c-1.283-0.504-2.804-0.726-3.802-1.568c-2.54-2.144-4.898-4.514-7.234-6.888c-3.331-3.385-7.069-3.834-10.608-1.148
	c-3.171,2.406-4.074,7.253-1.615,10.753c1.898,2.702,4.429,4.954,6.419,7.601c1.051,1.398,1.548,3.213,2.294,4.84
	c-1.616-0.753-3.291-1.406-4.826-2.299c-0.834-0.485-1.436-1.374-2.134-2.09c-10.764-11.031-21.476-22.113-32.315-33.07
	c-4.007-4.05-8.493-4.235-11.895-0.903c-3.638,3.564-3.498,8.164,0.549,12.273c6.195,6.291,12.446,12.529,18.733,18.729
	C135.337,202.675,143.905,211.012,152.448,219.373z M130.32,203.715c-8.868-10.892-17.559-21.482-33.781-17.747
	c-1.579,0.364-3.321,0.051-4.986,0.012c-4.196-0.098-6.509-2.085-6.502-6.456c0.017-10.161,0.047-20.323-0.016-30.484
	c-0.029-4.597,2.228-6.762,6.702-6.771c9.995-0.02,19.99-0.07,29.984,0.015c4.938,0.042,6.867,2.024,6.985,7.053
	c0.122,5.161-0.014,10.329,0.102,15.491c0.032,1.427,0.09,3.274,0.935,4.193c4.585,4.984,9.421,9.737,13.633,14.024
	c3.065-3.381,5.756-6.14,8.17-9.125c0.857-1.06,1.323-2.634,1.487-4.029c2.363-20.186-8.336-39.336-26.589-47.745
	c-17.878-8.235-39.433-3.989-52.767,10.396c-14.009,15.112-16.592,36.161-6.644,54.137
	C79.442,209.103,109.756,217.399,130.32,203.715z M273.674,243.69c-0.728-1.986-0.874-3.705-1.801-4.69
	c-4.435-4.713-8.825-9.53-13.746-13.702c-3.121-2.645-6.752-1.933-9.816,1.154c-12.181,12.272-24.461,24.446-36.648,36.712
	c-3.732,3.756-3.78,7.472-0.118,11.373c3.525,3.756,7.158,7.427,10.937,10.926c4.055,3.755,7.906,3.706,11.848-0.198
	c12.049-11.934,24.041-23.927,35.936-36.014C271.791,247.701,272.615,245.46,273.674,243.69z M125.032,163.791
	c0-5.456,0.188-10.08-0.137-14.668c-0.078-1.099-1.845-2.951-2.869-2.974c-9.978-0.221-19.966-0.23-29.942,0.021
	c-1.127,0.028-3.131,2.01-3.158,3.125c-0.247,9.977-0.215,19.964-0.03,29.944c0.018,0.999,1.552,2.778,2.447,2.82
	c5.57,0.262,11.158,0.132,16.875,0.132c-2.434-3.816-5.238-6.98-6.602-10.677c-1.554-4.21,0.41-8.157,3.689-11.201
	C110.415,155.568,115.507,156.345,125.032,163.791z"/>
<path stroke="#000000" stroke-width="4" d="M43.167,244.023c-1.053,11.155,6.142,20.039,16.551,20.115
	c31.331,0.227,62.668,0.314,93.994-0.14c4.154-0.06,8.247-3.593,12.393-5.463c1.273-0.574,2.628-0.966,3.946-1.442
	c-0.498,1.391-0.634,3.117-1.557,4.114c-4.164,4.5-9.514,6.768-15.595,6.781c-30.832,0.066-61.666,0.148-92.497-0.059
	c-12.283-0.082-21.313-9.487-21.33-21.845c-0.074-54.667-0.075-109.334,0.002-164c0.017-12.328,9.106-21.643,21.404-21.775
	c20.664-0.222,41.332-0.121,61.998-0.017c1.314,0.007,2.621,1.211,3.932,1.858c-1.344,0.606-2.685,1.731-4.033,1.739
	c-20.499,0.124-41,0.007-61.499,0.151c-11.227,0.079-18.539,8.216-17.806,20.199c1.693,0,3.444,0,5.194,0
	c24.166,0.001,48.332,0.001,72.499,0.004c1.333,0,2.713-0.177,3.982,0.114c0.775,0.177,1.381,1.092,2.064,1.675
	c-0.641,0.626-1.207,1.66-1.937,1.793c-1.617,0.295-3.316,0.162-4.982,0.162c-23.999-0.001-47.999-0.009-71.998-0.015
	c-1.474,0-2.949,0-4.794,0c0,50.791,0,101.185,0,152.303c1.773,0,3.538,0.001,5.303,0c20.833-0.008,41.666-0.019,62.499-0.019
	c1.33,0,2.7-0.082,3.973,0.212c0.607,0.14,1.419,1.068,1.429,1.651c0.009,0.578-0.787,1.542-1.382,1.68
	c-1.272,0.294-2.642,0.201-3.972,0.201c-20.666,0.013-41.332,0.016-61.999,0.022C47.137,244.023,45.327,244.023,43.167,244.023z"/>
<path d="M153.549,284.014c-10.301-0.002-20.602,0.06-30.901-0.074c-1.418-0.018-2.823-1.005-4.234-1.544
	c1.414-0.703,2.824-2.01,4.243-2.019c20.933-0.135,41.867-0.129,62.8-0.031c1.414,0.007,2.822,1.016,4.233,1.559
	c-1.414,0.704-2.819,1.994-4.244,2.017C174.816,284.095,164.182,284.016,153.549,284.014z"/>
<path d="M140.985,292.03c-9.467,0-18.936,0.068-28.401-0.075c-1.399-0.021-2.782-1.038-4.173-1.594
	c1.427-0.69,2.849-1.971,4.281-1.981c18.934-0.134,37.869-0.124,56.803-0.016c1.395,0.008,2.783,1.051,4.175,1.613
	c-1.428,0.684-2.844,1.934-4.284,1.961C159.921,292.117,150.452,292.031,140.985,292.03z"/>
<path d="M107.097,259.973c-2.662,0.004-5.333,0.144-7.984-0.031c-3.485-0.23-5.632-2.226-5.638-5.742
	c-0.006-3.472,2.016-5.706,5.537-5.829c5.483-0.191,10.982-0.181,16.466,0c3.228,0.107,5.953,2.17,5.25,5.278
	c-0.537,2.373-2.974,5.077-5.251,6.086C113.114,260.783,109.925,259.969,107.097,259.973z M106.997,256.261c0-0.024,0-0.048,0-0.072
	c2.649,0,5.317,0.178,7.935-0.108c0.789-0.086,1.438-1.462,2.15-2.247c-0.675-0.59-1.337-1.674-2.027-1.692
	c-5.129-0.138-10.268-0.152-15.395,0.034c-0.813,0.029-1.582,1.26-2.372,1.934c0.917,0.717,1.769,1.918,2.765,2.053
	C102.331,256.473,104.678,256.261,106.997,256.261z"/>
<path d="M173.992,108.403c0.342,0.86,0.975,1.718,0.982,2.58c0.076,9.625,0.109,19.251-0.016,28.875
	c-0.013,1.016-1.102,2.017-1.691,3.026c-0.631-0.992-1.795-1.975-1.81-2.976c-0.14-9.458-0.124-18.919-0.029-28.377
	c0.011-1.107,0.772-2.207,1.185-3.311C173.072,108.28,173.532,108.341,173.992,108.403z"/>
<path d="M244.08,113.224c-3.023-1.299-5.336-2.293-7.648-3.287c2.298-0.84,4.596-1.679,7.526-2.75
	c0.058-0.894-0.017-2.529,0.33-4.069c0.215-0.957,1.069-1.77,1.637-2.648c0.676,0.94,1.687,1.798,1.943,2.841
	c0.338,1.375,0.083,2.896,0.083,4.659c2,0.114,3.647,0.017,5.193,0.366c0.937,0.212,1.718,1.113,2.569,1.705
	c-0.805,0.636-1.528,1.612-2.433,1.831c-1.55,0.374-3.215,0.274-5.075,0.387c-0.101,1.379,0.023,2.565-0.316,3.598
	c-0.447,1.362-1.258,2.604-1.913,3.897c-0.59-1.358-1.299-2.679-1.726-4.086C243.971,114.757,244.105,113.719,244.08,113.224z"/>
<path d="M218.837,132.05c0.524-2.949,0.95-5.352,1.377-7.755c0.682-0.016,1.364-0.032,2.046-0.048
	c0.403,2.361,0.805,4.722,1.308,7.671c1.09,0.095,2.565,0.006,3.894,0.403c1.21,0.361,2.263,1.25,3.386,1.906
	c-1.194,0.585-2.34,1.34-3.598,1.703c-1.077,0.311-2.284,0.173-3.61,0.242c-0.48,2.644-0.945,5.202-1.41,7.761
	c-0.639,0.037-1.277,0.075-1.916,0.112c-0.483-2.493-0.965-4.986-1.509-7.792c-1.039-0.075-2.231,0.056-3.263-0.291
	c-1.355-0.456-2.583-1.289-3.866-1.96c1.357-0.583,2.68-1.278,4.084-1.708C216.668,132.015,217.693,132.125,218.837,132.05z"/>
<path d="M106.422,75.952c-3.49-0.002-6.987,0.11-10.467-0.077c-0.923-0.05-1.796-1.02-2.692-1.567
	c0.923-0.692,1.833-1.965,2.771-1.985c7.31-0.157,14.626-0.132,21.936,0.02c0.824,0.017,1.625,1.175,2.436,1.803
	c-0.839,0.603-1.654,1.683-2.52,1.727C114.073,76.062,110.245,75.954,106.422,75.952z"/>
<path d="M99.796,292.835c-1.294-1.095-2.35-1.989-3.407-2.883c1.207-0.553,2.453-1.614,3.61-1.524
	c1.275,0.099,2.467,1.256,3.695,1.952C102.581,291.08,101.469,291.781,99.796,292.835z"/>
<path fill="#FFFFFF" d="M172.547,100.242c-9.326,0.001-18.652,0.038-27.978-0.012c-6.922-0.037-9.779-2.805-9.81-9.627
	c-0.062-13.656-0.063-27.312-0.004-40.968c0.03-6.859,2.871-9.653,9.77-9.667c18.819-0.037,37.638-0.035,56.456,0.001
	c7.193,0.014,10.051,2.824,10.077,9.927c0.049,13.655,0.045,27.311,0,40.967c-0.021,6.478-2.905,9.317-9.535,9.362
	C191.866,100.289,182.206,100.241,172.547,100.242z M183.349,84.585c5.543-8.077,10.786-15.561,15.809-23.189
	c0.819-1.244,0.668-3.126,0.965-4.713c-1.346,0.923-3.08,1.569-3.973,2.817c-4.634,6.473-9.054,13.099-13.798,20.037
	c-4.995-3.332-9.584-6.609-14.415-9.48c-1.4-0.832-3.957-1.285-5.19-0.561c-5.449,3.199-10.656,6.823-15.823,10.474
	c-0.799,0.565-0.931,2.074-1.371,3.147c1.174-0.095,2.587,0.199,3.481-0.351c4.252-2.618,8.457-5.336,12.488-8.28
	c2.382-1.74,4.233-1.804,6.668-0.043C172.888,77.84,177.82,80.916,183.349,84.585z"/>
<path fill="#FFFFFF" d="M152.448,219.373c-8.543-8.361-17.111-16.698-25.622-25.092c-6.287-6.2-12.538-12.437-18.733-18.729
	c-4.047-4.11-4.187-8.71-0.549-12.273c3.402-3.333,7.888-3.148,11.895,0.903c10.839,10.956,21.551,22.039,32.315,33.07
	c0.698,0.715,1.299,1.604,2.134,2.09c1.535,0.893,3.21,1.546,4.826,2.299c-0.747-1.627-1.243-3.442-2.294-4.84
	c-1.99-2.647-4.521-4.898-6.419-7.601c-2.459-3.501-1.555-8.348,1.615-10.753c3.539-2.685,7.277-2.236,10.608,1.148
	c2.336,2.373,4.694,4.744,7.234,6.888c0.998,0.842,2.519,1.063,3.802,1.568c0.285-0.415,0.571-0.83,0.856-1.245
	c-0.839-1.085-1.601-2.242-2.533-3.24c-2.042-2.186-4.369-4.134-6.221-6.464c-3.811-4.791-3.564-9.564,0.368-12.766
	c3.539-2.882,7.504-2.134,11.753,2.192c1.984,2.02,3.893,4.137,6.051,5.956c0.983,0.829,2.485,1.042,3.752,1.535
	c0.297-0.439,0.594-0.878,0.891-1.317c-1.089-1.315-2.133-2.67-3.277-3.935c-2.12-2.343-4.452-4.51-6.416-6.974
	c-2.449-3.071-2.492-6.516-0.315-9.752c2.288-3.401,5.831-3.967,9.331-2.697c2.404,0.872,4.728,2.488,6.57,4.297
	c11.171,10.974,22.071,22.226,33.301,33.138c9.676,9.401,14.215,21.55,18.756,33.722c0.367,0.984-0.424,2.892-1.288,3.769
	c-11.226,11.391-22.527,22.711-33.942,33.912c-0.904,0.887-3.15,1.504-4.176,1.01c-24.19-11.65-50.662-14.87-76.38-20.849
	c-6.214-1.445-8.913-4.33-8.318-9.177c0.587-4.781,3.924-7.114,10.252-7.14c4.998-0.02,9.997,0.04,14.994-0.057
	c1.508-0.029,3.009-0.465,4.513-0.715C152.002,220.627,152.225,220,152.448,219.373z M236.109,220.529
	c-0.134-0.722-0.114-1.093-0.267-1.367c-4.517-8.063-8.984-16.156-13.684-24.111c-0.493-0.834-2.379-0.844-3.619-1.236
	c0.394,1.278,0.569,2.683,1.218,3.814c3.616,6.305,7.379,12.526,11.015,18.82c0.824,1.427,1.225,3.099,2.06,4.518
	c0.325,0.553,1.364,1.058,1.977,0.96C235.367,221.837,235.789,220.901,236.109,220.529z"/>
<path fill="#FFFFFF" d="M130.32,203.715c-20.564,13.684-50.878,5.388-63.287-17.037c-9.948-17.977-7.364-39.026,6.644-54.137
	c13.334-14.384,34.889-18.631,52.767-10.396c18.253,8.408,28.952,27.558,26.589,47.745c-0.163,1.396-0.629,2.969-1.487,4.029
	c-2.413,2.984-5.105,5.744-8.17,9.125c-4.212-4.287-9.048-9.04-13.633-14.024c-0.845-0.919-0.903-2.766-0.935-4.193
	c-0.116-5.162,0.02-10.329-0.102-15.491c-0.119-5.028-2.048-7.01-6.985-7.053c-9.994-0.086-19.989-0.036-29.984-0.015
	c-4.474,0.009-6.73,2.174-6.702,6.771c0.063,10.161,0.033,20.322,0.016,30.484c-0.007,4.372,2.306,6.358,6.502,6.456
	c1.665,0.039,3.406,0.352,4.986-0.012C112.761,182.233,121.451,192.823,130.32,203.715z"/>
<path fill="#FFFFFF" d="M273.674,243.69c-1.059,1.77-1.883,4.01-3.409,5.56c-11.895,12.087-23.887,24.08-35.936,36.014
	c-3.942,3.904-7.793,3.954-11.848,0.198c-3.779-3.499-7.412-7.169-10.937-10.926c-3.661-3.901-3.613-7.618,0.118-11.373
	c12.187-12.266,24.468-24.439,36.648-36.712c3.064-3.087,6.695-3.8,9.816-1.154c4.922,4.172,9.311,8.989,13.746,13.702
	C272.8,239.985,272.946,241.705,273.674,243.69z"/>
<path fill="#FFFFFF" d="M125.032,163.791c-9.524-7.447-14.616-8.223-19.728-3.477c-3.278,3.044-5.243,6.991-3.689,11.201
	c1.365,3.696,4.168,6.861,6.602,10.677c-5.717,0-11.305,0.13-16.875-0.132c-0.895-0.042-2.429-1.821-2.447-2.82
	c-0.185-9.98-0.217-19.967,0.03-29.944c0.028-1.115,2.032-3.097,3.158-3.125c9.977-0.251,19.964-0.242,29.942-0.021
	c1.023,0.023,2.791,1.875,2.869,2.974C125.22,153.711,125.032,158.335,125.032,163.791z"/>
<path fill="#FFFFFF" d="M106.997,256.261c-2.319,0-4.666,0.212-6.943-0.098c-0.996-0.135-1.848-1.336-2.765-2.053
	c0.79-0.675,1.559-1.905,2.372-1.934c5.127-0.186,10.265-0.172,15.395-0.034c0.69,0.019,1.352,1.102,2.027,1.692
	c-0.713,0.785-1.361,2.16-2.15,2.247c-2.618,0.286-5.286,0.108-7.935,0.108C106.997,256.213,106.997,256.237,106.997,256.261z"/>
<path d="M183.349,84.585c-5.528-3.669-10.461-6.745-15.16-10.143c-2.435-1.761-4.286-1.697-6.668,0.043
	c-4.031,2.944-8.236,5.662-12.488,8.28c-0.894,0.55-2.307,0.256-3.481,0.351c0.44-1.073,0.572-2.582,1.371-3.147
	c5.166-3.652,10.374-7.276,15.823-10.474c1.233-0.724,3.79-0.271,5.19,0.561c4.831,2.871,9.42,6.148,14.415,9.48
	c4.744-6.938,9.164-13.564,13.798-20.037c0.893-1.248,2.627-1.893,3.973-2.817c-0.297,1.587-0.147,3.469-0.965,4.713
	C194.134,69.024,188.892,76.508,183.349,84.585z"/>
<path d="M236.109,220.529c-0.319,0.372-0.742,1.309-1.3,1.398c-0.614,0.098-1.652-0.407-1.977-0.96
	c-0.835-1.419-1.236-3.091-2.06-4.518c-3.636-6.294-7.399-12.515-11.015-18.82c-0.649-1.132-0.824-2.536-1.218-3.814
	c1.24,0.392,3.126,0.403,3.619,1.236c4.7,7.955,9.167,16.048,13.684,24.111C235.995,219.435,235.974,219.806,236.109,220.529z"/>
</svg>
