<?xml version="1.0" encoding="utf-8"?>
<!-- Generator: Adobe Illustrator 21.0.0, SVG Export Plug-In . SVG Version: 6.00 Build 0)  -->
<svg version="1.1" id="Layer_1" xmlns="http://www.w3.org/2000/svg" xmlns:xlink="http://www.w3.org/1999/xlink" x="0px" y="0px"
	 viewBox="0 0 512 512" style="enable-background:new 0 0 512 512;" xml:space="preserve">
<g>
	<g>
		<path d="M506.2,75.5c-7.7-7.7-20.2-7.7-27.8,0L159.2,394.7L33.6,269.2c-7.7-7.7-20.2-7.7-27.8,0c-7.7,7.7-7.7,20.2,0,27.8
			l139.5,139.5c7.7,7.7,20.2,7.7,27.8,0l333.1-333.1C513.9,95.7,513.9,83.2,506.2,75.5z"/>
	</g>
</g>
</svg>
